<?xml version="1.0" encoding="utf-8"?>
<!-- Generator: Adobe Illustrator 22.0.0, SVG Export Plug-In . SVG Version: 6.00 Build 0)  -->
<svg version="1.1" id="Layer_1" xmlns="http://www.w3.org/2000/svg" xmlns:xlink="http://www.w3.org/1999/xlink" x="0px" y="0px"
	 viewBox="0 0 1276 2000" style="enable-background:new 0 0 1276 2000;" xml:space="preserve">
<style type="text/css">
	.st0{fill:#F0CAB3;}
	.st1{fill:#688073;}
	.st2{fill:#E35755;}
	.st3{fill:#37336E;}
	.st4{fill:#021B27;}
	.st5{fill:#502820;}
	.st6{fill:#A81437;}
</style>
<g>
	<path class="st0" d="M700.5,1338.8H536.1c-52.5,0-95.1,42.6-95.1,95.1c0,52.5,42.6,95.1,95.1,95.1h164.4
		c52.5,0,95.1-42.6,95.1-95.1C795.6,1381.4,753,1338.8,700.5,1338.8z M623.3,1493.8c-4.2,0-8.3-0.4-12.2-1.3
		c-7.5-1.6-14.5-4.5-20.7-8.6c-16.3-10.7-27-29.1-27-50c0-20.9,10.7-39.3,27-50c6.2-4.1,13.1-7,20.6-8.6c3.9-0.8,8-1.2,12.2-1.2
		c1.1,0,2.2,0,3.3,0.1c10.9,0.6,21,4.1,29.6,9.7c16.3,10.7,27,29.1,27,50c0,20.9-10.7,39.3-27,50c-8.6,5.7-18.7,9.2-29.6,9.7
		C625.5,1493.8,624.4,1493.8,623.3,1493.8z"/>
	<path class="st0" d="M756.3,1155.1h36.4V1110H441v45.1h182.2v0.1c14.5,0,27.6,6.2,36.6,16.1c8.3,8.9,13.3,20.7,13.3,33.8
		c0,19.8-11.2,36.8-27.8,44.7c-6.6,3.4-14.2,5.3-22.2,5.3h24.2c0,0,0,0,0,0.1H441v45.1h274.3c0.9,0,1.8,0.1,2.8,0.1
		c42.8,0,77.5-34.9,77.5-77.7C795.6,1193.7,779.8,1168.5,756.3,1155.1z"/>
	<path class="st0" d="M563.5,552.5H441v0v45.1v116.8c0,27.7,9.5,53.3,25.5,73.4h0c21.7,27.4,55.3,45.1,93,45.1
		c34.9,0,66.2-15.1,87.9-39c21.7,24,53,39,87.9,39c37.7,0,71.3-17.6,93-45.1h0c16-20.2,25.5-45.7,25.5-73.4V552.5H731.5v0h-53.4
		h-61.2L563.5,552.5L563.5,552.5z M731.5,597.7v163.6c0,14.7-11.9,26.6-26.6,26.7h-0.2c-14.7-0.1-26.6-12-26.6-26.7V597.7H731.5z
		 M616.9,597.7v163.6c0,14.7-11.9,26.6-26.6,26.7h-0.2c-14.7-0.1-26.6-12-26.6-26.7h0V597.7H616.9z"/>
	
		<ellipse transform="matrix(0.9871 -0.1602 0.1602 0.9871 -145.1541 154.1889)" class="st0" cx="883.8" cy="977.4" rx="59.9" ry="59.9"/>
	<polygon class="st0" points="441.1,879 441.1,954.9 441,954.9 441,1000 441.1,1000 441.1,1069.3 563.4,1069.3 563.4,1000 
		792.7,1000 792.7,954.9 792.7,954.9 766,889.1 643.6,889.1 670.3,954.9 563.4,954.9 563.4,879 	"/>
	<path class="st0" d="M617,1484h2.6c-0.4-0.7-0.9-1.4-1.3-2.1C617.9,1482.5,617.5,1483.3,617,1484z"/>
	<path class="st0" d="M391.5,482.1c1.8,3.6,4.3,7,7.6,10.2c3.2,3,6.5,5.3,10,6.8c3.5,1.5,7,2.2,10.5,2.2c3.5-0.1,6.9-0.9,10.3-2.4
		c3.4-1.6,6.5-3.9,9.5-7c5.2-5.4,7.9-11.6,8.3-18.5l5.5,2.8l1.8-1.9l-13.6-13l-2.1,2.2c5.6,9.1,5,17.2-1.7,24.2
		c-4.4,4.6-9.3,6.7-14.8,6.1c-5.5-0.6-11.1-3.6-17-9.2c-3-2.8-5.4-5.7-7.1-8.6c-1.8-2.9-2.9-5.7-3.4-8.5c-0.5-2.8-0.3-5.4,0.4-8
		c0.8-2.6,2.2-5,4.4-7.2c3.1-3.2,6.6-5.1,10.6-5.7c4-0.6,8,0.3,12,2.5l1.9-2l-13-11.5l-1.5,1.5l2.5,4.2c-3.5,0.9-6.5,2.1-9,3.4
		c-2.5,1.3-4.7,3.1-6.8,5.3c-3,3.1-5.1,6.4-6.5,10c-1.4,3.6-1.9,7.2-1.7,10.9C388.7,474.8,389.7,478.5,391.5,482.1z"/>
	<path class="st0" d="M460.8,461.7c0,0.9-0.1,1.7-0.4,2.4c-0.3,0.7-0.7,1.4-1.3,2.1c-0.6,0.7-1.3,1.4-2.2,2.1l1.6,2.4l15.4-10
		l-1.6-2.4c-1.8,1.1-3.2,1.8-4.2,1.8c-1.1,0.1-2-0.5-2.7-1.7c-0.3-0.4-0.6-1-0.9-1.8c-0.3-0.8-0.6-1.7-1-2.9c-0.3-1.2-0.7-2.6-1-4.3
		c-0.4-1.6-0.7-3.6-1.1-5.8l16.9-11l7,5.1c0.8,0.5,1.4,1,1.9,1.4c0.5,0.4,1,0.8,1.4,1.1c0.4,0.4,0.7,0.7,1,1
		c0.3,0.3,0.6,0.7,0.8,1.1c0.6,1,0.7,1.9,0.1,2.9c-0.6,1-2,2.2-4.2,3.6l1.6,2.5l20.6-13.4l-1.6-2.5c-1.1,0.7-2.1,1.2-3,1.5
		c-0.9,0.3-1.9,0.3-3.1,0c-1.1-0.3-2.5-0.9-4.2-1.8c-1.6-1-3.7-2.3-6.2-4l-37.6-26.3l-2.7,1.8l10.4,51.9
		C460.7,459.9,460.8,460.9,460.8,461.7z M475,430.4l-14.4,9.4l-4.8-23.5L475,430.4z"/>
	<path class="st0" d="M497.9,383.9c1-0.1,1.9,0,2.6,0.4c0.7,0.4,1.3,1.1,1.9,2.1c0.5,1,1.1,2.3,1.7,3.9l12,33.1c0.6,1.7,1,3,1.1,4.2
		c0.2,1.1,0.1,2.1-0.3,2.8c-0.4,0.8-1.1,1.5-2.1,2.1c-1,0.6-2.5,1.3-4.3,2l1,2.7L537,428c2-0.7,3.8-1.4,5.3-2
		c1.5-0.6,2.7-1.2,3.8-1.8c1.1-0.6,2-1.1,2.8-1.7c0.8-0.6,1.5-1.2,2.1-1.9c2.1-2.1,3.4-4.5,4-7.2c0.6-2.7,0.5-5.2-0.4-7.7
		c-1.6-4.5-5.1-7.5-10.4-8.9c-0.9-0.2-1.8-0.4-2.6-0.5c-0.9-0.1-1.8-0.2-2.7-0.1c-1,0.1-2,0.2-3.2,0.4c-1.1,0.2-2.5,0.5-4,0.9
		l-0.1-0.3c3.8-2.8,6.3-5.6,7.6-8.3c1.2-2.7,1.3-5.6,0.2-8.7c-1.5-4.1-4.4-6.7-8.8-7.6c-4.4-1-9.7-0.3-16.1,2l-21.2,7.7l1,2.7
		C495.6,384.3,496.9,384,497.9,383.9z M531.8,400.3c0.8,0,1.6,0,2.5,0.1c5.2,0.5,8.7,3.5,10.7,8.8c2.7,7.3-0.3,12.5-8.9,15.6
		c-3.5,1.3-6.2,1.6-8.2,0.8c-2-0.7-3.5-2.5-4.5-5.4l-5.7-15.8l3.2-1.2c1.9-0.7,3.5-1.2,4.8-1.7c1.3-0.4,2.5-0.7,3.5-1
		C530.1,400.5,531,400.4,531.8,400.3z M510,379.7l5.5-2c3.9-1.4,7-1.6,9.4-0.7c2.4,1,4.3,3.3,5.6,7.1c0.8,2.1,1.1,4,0.9,5.5
		c-0.2,1.6-0.8,3.1-2,4.6c-0.4,0.6-0.9,1.1-1.3,1.5c-0.5,0.4-1,0.8-1.7,1.2c-0.7,0.4-1.5,0.8-2.5,1.2c-1,0.4-2.2,0.9-3.7,1.4l-4,1.4
		l-7.1-19.6C509,380.6,509.2,380,510,379.7z"/>
	<path class="st0" d="M565.2,363.2c1,0.1,1.8,0.4,2.4,1c0.6,0.5,1.1,1.4,1.4,2.4c0.3,1.1,0.6,2.5,0.8,4.2l4.4,34.9
		c0.2,1.8,0.3,3.2,0.2,4.3c-0.1,1.1-0.4,2-0.9,2.7c-0.5,0.7-1.3,1.2-2.4,1.6c-1,0.4-2.4,0.7-4.2,1l0.4,2.8l46.5-5.8l-0.7-14.9
		l-2.8,0.4c-0.2,2.2-0.6,4.2-1.2,5.7c-0.6,1.6-1.4,2.9-2.5,3.9c-1.1,1-2.6,1.9-4.4,2.5c-1.8,0.6-4,1.1-6.7,1.4
		c-2.3,0.3-4.3,0.4-6,0.3c-1.6-0.1-3-0.4-4-0.9c-1.1-0.5-1.9-1.3-2.4-2.4c-0.5-1-0.9-2.4-1.1-4l-2.1-16.9c2.8-0.4,5.1-0.4,7-0.3
		c1.9,0.1,3.4,0.5,4.5,1.1c1.2,0.6,2,1.4,2.6,2.5c0.6,1,0.9,2.3,1.1,3.8l2.6-0.3l-2.5-20.4l-2.6,0.3c0.2,1.5,0.1,2.8-0.2,4
		c-0.3,1.2-1,2.2-2,3c-1,0.8-2.4,1.5-4.2,2.1c-1.8,0.5-4,1-6.7,1.3l-2.7-21.5c-0.1-0.8,0.3-1.3,1.1-1.4l9.5-1.2
		c2.5-0.3,4.7-0.4,6.6-0.4c1.8,0.1,3.4,0.4,4.7,1c1.3,0.6,2.3,1.5,3.1,2.7c0.8,1.2,1.5,2.8,2.1,4.7l2.6-0.3l-2.3-13.1l-43.3,5.4
		l0.4,2.8C562.9,363.1,564.2,363.1,565.2,363.2z"/>
	<path class="st0" d="M649.8,411.5c-2.3-0.2-4.1-0.5-5.4-0.9c-1.4-0.4-2.4-0.9-3-1.6c-0.7-0.7-1-1.7-1.1-2.9s-0.1-2.7,0.1-4.6
		l1.5-15.6c1.1,0.1,2.1,0.2,3,0.4c0.8,0.2,1.5,0.4,2.1,0.7c0.6,0.3,1.2,0.8,1.7,1.3c0.5,0.5,1.1,1.3,1.6,2.2l16,25.4l14.5,1.4
		l0.3-2.9c-2.2-0.6-4.1-1.3-5.7-2.2c-1.6-0.9-2.9-2.2-4.1-4l-14.6-21.6c5.3-0.4,9.4-1.8,12-4.2c2.7-2.4,4.2-5.6,4.6-9.6
		c0.5-4.6-1.1-8.3-4.6-11.2c-3.5-2.9-8.7-4.7-15.7-5.4l-23.6-2.4l-0.3,2.9c1.6,0.3,2.9,0.5,3.9,0.9c1,0.3,1.7,0.8,2.2,1.5
		c0.5,0.7,0.7,1.6,0.8,2.7c0.1,1.1,0,2.5-0.2,4.3l-3.5,35c-0.2,1.8-0.4,3.2-0.7,4.3c-0.3,1.1-0.8,1.9-1.5,2.4
		c-0.7,0.5-1.5,0.9-2.6,1c-1.1,0.1-2.5,0.2-4.3,0l-0.3,2.8l26.5,2.6L649.8,411.5z M644.5,360.3c0.1-0.8,0.5-1.2,1.4-1.2l6.9,0.7
		c4.1,0.4,7,1.6,8.8,3.5c1.8,1.9,2.4,4.9,2,9c-0.4,4.2-1.9,7.1-4.5,8.7c-2.6,1.6-6.4,2.1-11.4,1.6l-5.3-0.5L644.5,360.3z"/>
	<path class="st0" d="M702.8,422.3c-1.5-0.6-2.7-1.2-3.5-1.8c-0.8-0.6-1.4-1.3-1.6-2.3c-0.2-0.9-0.2-2.1,0.2-3.6
		c0.3-1.4,0.9-3.3,1.8-5.7l11-30.3l0.3,0.1l17.5,56.6l4.2,1.6l15.4-42.4c0.8-2.2,1.5-3.9,2.2-5.1c0.7-1.3,1.4-2.1,2.2-2.6
		c0.8-0.5,1.8-0.7,2.9-0.6c1.1,0.1,2.5,0.4,4.2,1l1-2.7l-19.1-6.9l-1,2.7c1.5,0.6,2.7,1.2,3.5,1.8c0.8,0.6,1.4,1.3,1.6,2.3
		c0.2,0.9,0.2,2.1-0.2,3.6c-0.3,1.5-0.9,3.3-1.8,5.7l-10.2,27.9l-0.3-0.1l-15.9-52.6l-14-5.1l-1,2.7c1.5,0.7,2.6,1.3,3.5,1.9
		c0.8,0.7,1.4,1.4,1.6,2.4c0.2,0.9,0.2,2.1-0.1,3.4c-0.3,1.4-0.8,3-1.5,5L695.2,408c-0.8,2.2-1.5,3.9-2.2,5.2
		c-0.7,1.2-1.4,2.1-2.2,2.6c-0.8,0.5-1.8,0.7-2.9,0.6c-1.1-0.1-2.5-0.4-4.2-1l-1,2.7l19.1,6.9L702.8,422.3z"/>
	<path class="st0" d="M782.2,402.7c0.1,0.8-0.1,1.7-0.5,2.7c-0.5,1-1.2,2.2-2.2,3.7l-19.6,29.2c-1,1.5-1.9,2.6-2.7,3.4
		c-0.8,0.8-1.6,1.3-2.4,1.5c-0.8,0.2-1.8,0.1-2.8-0.3c-1-0.4-2.3-1.1-3.8-2l-1.6,2.4l38.9,26.1l9.2-11.7l-2.4-1.6
		c-1.7,1.6-3.2,2.7-4.7,3.6c-1.5,0.8-3,1.2-4.5,1.3c-1.6,0.1-3.2-0.3-5-1c-1.8-0.7-3.7-1.8-5.9-3.3c-2-1.3-3.5-2.5-4.7-3.7
		c-1.2-1.1-2-2.2-2.4-3.4c-0.4-1.1-0.5-2.2-0.3-3.3c0.3-1.1,0.9-2.4,1.8-3.7l9.5-14.2c2.3,1.6,4.2,3,5.5,4.4
		c1.3,1.3,2.2,2.6,2.7,3.8c0.5,1.2,0.6,2.4,0.3,3.5c-0.3,1.2-0.8,2.4-1.7,3.6l2.2,1.5l11.5-17.1l-2.2-1.5c-0.8,1.3-1.8,2.2-2.8,2.9
		c-1,0.7-2.2,1-3.4,1c-1.3,0-2.8-0.4-4.5-1.2c-1.7-0.7-3.7-1.9-5.9-3.4l12.1-18c0.5-0.7,1.1-0.8,1.8-0.4l8,5.3
		c2.1,1.4,3.9,2.8,5.2,4c1.3,1.3,2.3,2.5,2.8,3.8c0.6,1.3,0.8,2.6,0.6,4.1c-0.1,1.4-0.7,3.1-1.5,4.9l2.2,1.5l6.8-11.4l-36.2-24.3
		l-1.6,2.4c1.3,1,2.3,1.9,3,2.6C781.8,401.1,782.1,401.8,782.2,402.7z"/>
	<path class="st0" d="M846.4,455.2L817,482.8c-1.2,1.1-2.3,2-3.3,2.6c-1,0.6-2,0.9-3,0.9c-1,0-2.1-0.3-3.2-1c-1.2-0.7-2.5-1.8-4-3.3
		l-2.1,2l19.5,20.8l2.1-2c-1.4-1.6-2.4-3-3-4.2c-0.6-1.2-0.9-2.3-0.8-3.3c0.1-1,0.4-2,1.1-2.9c0.7-1,1.6-2,2.8-3.1l29.5-27.6
		c0.3-0.3,0.7-0.5,1-0.6c0.3-0.1,0.8,0.1,1.3,0.4c0.5,0.3,1.3,0.8,2.1,1.6c0.8,0.8,1.9,1.8,3.2,3.2c1.5,1.6,2.6,3.1,3.4,4.4
		c0.8,1.4,1.3,2.7,1.4,4c0.1,1.3-0.2,2.7-0.9,4.1c-0.7,1.4-1.8,2.9-3.2,4.5l2.1,2.3l10-10.4l-39-41.6l-10.5,9.9l1.9,2
		c2-1.8,3.8-2.9,5.4-3.4c1.6-0.5,3.1-0.5,4.5-0.1c1.4,0.4,2.7,1.2,4,2.3c1.3,1.1,2.6,2.4,3.9,3.8c1.1,1.2,1.9,2.1,2.5,2.9
		c0.6,0.7,1,1.4,1.2,1.9c0.2,0.5,0.3,0.9,0.2,1.3C846.9,454.6,846.7,454.9,846.4,455.2z"/>
	<path class="st0" d="M397.1,1603.4c0.9-1.4,1.5-3.1,1.9-5.2c0.3-2,0.3-4.5,0-7.3c-0.3-2.8-0.9-6.2-1.7-10.2c-0.5-2.3-0.8-4.3-1-6
		c-0.1-1.7-0.1-3.2,0.1-4.4c0.2-1.3,0.5-2.3,1.1-3.2c0.6-0.9,1.3-1.7,2.3-2.4c2.1-1.5,4.3-2,6.5-1.4c2.3,0.6,4.3,2.1,6.1,4.6
		c1.9,2.6,2.7,5.4,2.4,8.5c-0.3,3-1.8,6.2-4.4,9.6l1.6,2.3l11.7-9.5l-1-1.4l-3.9,0.4c0.1-2.5-0.1-4.7-0.7-6.7
		c-0.5-2-1.5-3.8-2.8-5.6c-1.4-2-3.1-3.6-4.9-4.8c-1.8-1.2-3.8-2-5.8-2.4c-2.1-0.4-4.1-0.3-6.2,0.2c-2.1,0.5-4,1.4-5.9,2.8
		c-1.6,1.2-2.8,2.4-3.8,3.7c-0.9,1.3-1.6,2.9-1.9,4.7c-0.4,1.8-0.4,3.9-0.2,6.4c0.2,2.4,0.7,5.3,1.4,8.6c0.6,2.7,1,5.1,1.2,7
		c0.2,1.9,0.2,3.6,0,5c-0.2,1.4-0.6,2.6-1.2,3.5c-0.6,1-1.4,1.8-2.4,2.6c-2.4,1.8-5,2.3-7.7,1.6c-2.7-0.7-5.1-2.6-7.3-5.6
		c-1.3-1.8-2.3-3.7-2.9-5.7c-0.6-2-0.8-3.9-0.7-5.9s0.7-3.8,1.6-5.7c0.9-1.9,2.2-3.6,3.8-5.2l-1.6-2.3l-13,10.8l1,1.4l4.2-0.5
		c-0.2,3,0.1,5.7,0.8,8c0.7,2.3,1.9,4.7,3.6,7c1.8,2.4,3.7,4.4,5.9,6c2.1,1.5,4.4,2.6,6.6,3.2s4.6,0.7,6.9,0.2
		c2.3-0.4,4.5-1.4,6.5-2.9C394.9,1606.1,396.2,1604.8,397.1,1603.4z"/>
	<path class="st0" d="M436.4,1650.4l15.8-43.1l-2.4-2.2l-47.5,23.3c-1,0.5-2,0.8-2.8,1.1c-0.8,0.2-1.6,0.3-2.4,0.2
		c-0.8-0.1-1.6-0.3-2.3-0.7c-0.8-0.4-1.7-0.9-2.6-1.6l-1.9,2.1l13.6,12.3l1.9-2.1c-1.6-1.4-2.5-2.6-2.8-3.6c-0.3-1,0-2,0.9-3.1
		c0.3-0.4,0.8-0.8,1.5-1.3c0.7-0.5,1.5-1,2.6-1.7c1.1-0.6,2.3-1.3,3.9-2.1c1.5-0.8,3.3-1.6,5.3-2.6L432,1639l-3.2,8.1
		c-0.3,0.9-0.6,1.6-0.8,2.2c-0.3,0.6-0.5,1.2-0.8,1.6c-0.2,0.5-0.5,0.9-0.7,1.2c-0.2,0.4-0.5,0.7-0.9,1.1c-0.8,0.9-1.7,1.1-2.8,0.8
		c-1.1-0.3-2.6-1.3-4.6-3.1l-2,2.2l18.2,16.5l2-2.2c-1-0.9-1.7-1.7-2.2-2.5c-0.5-0.8-0.8-1.8-0.8-3c0-1.2,0.2-2.7,0.7-4.5
		C434.6,1655.6,435.4,1653.3,436.4,1650.4z M420.7,1623.7l21.5-10.6l-8.7,22.1L420.7,1623.7z"/>
	<path class="st0" d="M505.4,1647.4c1.4,0.8,2.5,1.5,3.3,2.1c0.8,0.7,1.4,1.4,1.7,2.4c0.4,1.3,0.2,3-0.7,5.2
		c-0.8,2.2-2.3,5.3-4.5,9.2l-8.8,15.9c-2.6,4.8-5.7,7.7-9.3,9c-3.6,1.2-7.5,0.6-11.9-1.8c-2.5-1.4-4.4-2.8-5.7-4.4
		c-1.4-1.6-2.2-3.2-2.6-5c-0.4-1.8-0.3-3.7,0.2-5.7c0.5-2,1.4-4.1,2.6-6.4l9.9-18c1.8-3.3,3.3-5.7,4.4-7.3c1.1-1.6,2.2-2.7,3.3-3.1
		c0.9-0.4,1.9-0.4,2.9-0.1c1,0.3,2.3,0.9,3.8,1.7l1.4-2.5l-22.5-12.4l-1.4,2.5c1.5,0.8,2.6,1.6,3.4,2.3c0.8,0.7,1.3,1.5,1.5,2.3
		c0.3,1.2,0,2.8-0.8,4.6c-0.8,1.9-2.1,4.4-3.9,7.7l-9.6,17.4c-1.9,3.5-3.1,6.6-3.7,9.4c-0.5,2.8-0.4,5.4,0.4,7.8
		c0.8,2.4,2.3,4.6,4.3,6.5c2.1,2,4.7,3.9,8,5.7c3.4,1.9,6.6,3.1,9.5,3.5c2.9,0.4,5.6,0.2,8.1-0.7c2.5-0.9,4.8-2.5,6.9-4.8
		c2.1-2.3,4.2-5.1,6.1-8.6l7.4-13.4c2-3.7,3.7-6.4,5-8.2c1.3-1.8,2.5-3,3.7-3.6c0.9-0.5,1.9-0.5,3-0.3c1,0.3,2.2,0.8,3.6,1.6
		l1.4-2.5l-19.2-10.6L505.4,1647.4z"/>
	<path class="st0" d="M568,1669.9c2.2,0.6,3.6,1.3,4.3,2c0.7,0.7,0.8,1.8,0.5,3.1c-0.2,0.8-0.6,1.7-1.2,2.7
		c-0.6,0.9-1.5,2.2-2.7,3.8l-21.2,28.2l-4.3-36.3c-0.2-1.9-0.4-3.3-0.4-4.3c0-1,0.1-1.8,0.3-2.5c0.1-0.5,0.3-0.9,0.6-1.2
		c0.3-0.3,0.7-0.6,1.3-0.7c0.6-0.1,1.3-0.1,2.2,0c0.9,0.1,2,0.3,3.4,0.7l0.8-2.8l-23.8-6.3l-0.7,2.8c1.2,0.4,2.3,0.9,3.1,1.5
		c0.8,0.6,1.5,1.3,2.1,2.2c0.5,0.9,1,1.9,1.3,3.2s0.6,2.7,0.8,4.3l6.8,50.4l2.6,0.7l32.6-43c0.7-0.9,1.4-1.6,2-2.2
		c0.7-0.6,1.3-1,2.1-1.3c0.7-0.3,1.5-0.4,2.4-0.5c0.9,0,1.9,0,3,0.2l0.7-2.8l-17.7-4.7L568,1669.9z"/>
	<path class="st0" d="M592.3,1673.9c1.6,0.2,2.9,0.5,3.9,0.9c1,0.4,1.7,1,2.2,1.9c0.5,0.8,0.7,2,0.8,3.4c0.1,1.4,0,3.1-0.1,5.3
		l-2.3,30.5c-0.2,2.4-0.4,4.2-0.7,5.6c-0.3,1.4-0.8,2.4-1.5,3.1c-0.7,0.7-1.5,1.2-2.6,1.4c-1.1,0.2-2.5,0.2-4.3,0.2l-0.2,2.9
		l24.4,1.8l0.2-2.9c-1.8-0.2-3.1-0.4-4.2-0.8c-1.1-0.3-1.9-0.9-2.4-1.8c-0.5-0.8-0.8-2-0.9-3.5c-0.1-1.5-0.1-3.5,0.1-6l2.2-29.5
		c0.2-2.2,0.4-4.1,0.7-5.5c0.3-1.5,0.7-2.6,1.3-3.3c0.6-0.8,1.4-1.3,2.4-1.6c1-0.3,2.3-0.4,3.9-0.3l0.2-2.9l-22.9-1.7L592.3,1673.9z
		"/>
	<path class="st0" d="M666.8,1703.4l0.3,2.8c2.7-0.3,4.6,0,5.9,0.9c1.3,0.9,2.1,2.8,2.5,5.7c0.2,1.4,0,2.8-0.5,4.1
		c-0.5,1.3-1.4,2.6-2.6,3.7c-1.2,1.1-2.7,2.1-4.6,2.9c-1.8,0.8-3.9,1.3-6.3,1.6c-6.3,0.7-11.4-0.9-15.3-4.8c-3.9-3.9-6.2-9.9-7.2-18
		c-0.5-4.1-0.5-7.8,0-11.2c0.5-3.4,1.5-6.2,2.8-8.7c1.4-2.4,3.2-4.4,5.5-5.9c2.3-1.5,4.9-2.4,8-2.7c2-0.2,4-0.2,6,0.1
		c2,0.3,3.8,1,5.4,2c1.6,1,3,2.3,4.1,4c1.1,1.7,1.8,3.7,2.1,6.2l3.6-0.4l-1-17.3l-2.6,0.3l-1,4.8c-3.3-1.5-6.3-2.6-9.1-3.1
		c-2.7-0.5-5.6-0.6-8.6-0.3c-4.2,0.5-8,1.7-11.4,3.6c-3.4,1.9-6.1,4.3-8.3,7.3c-2.2,3-3.8,6.4-4.8,10.4c-1,3.9-1.2,8.1-0.7,12.7
		c0.5,4.3,1.6,8.2,3.3,11.6c1.7,3.4,3.9,6.2,6.6,8.4c2.7,2.2,5.8,3.8,9.4,4.7c3.6,1,7.4,1.2,11.7,0.7c2.7-0.3,5.1-0.9,7.3-1.8
		c2.2-0.9,4.1-1.9,5.8-3.1c1.3-1,2.4-1.7,3.4-2.3c1-0.6,1.9-1.1,2.7-1.4c0.8-0.4,1.6-0.6,2.4-0.8c0.8-0.2,1.6-0.3,2.6-0.4l-1-8.4
		c-0.1-1.3-0.2-2.4-0.1-3.3c0.1-0.9,0.3-1.6,0.7-2.2c0.4-0.6,1-1,1.8-1.3c0.8-0.3,1.8-0.5,3-0.7l-0.3-2.8L666.8,1703.4z"/>
	<path class="st0" d="M742.7,1653.7c-0.3-1.4-0.4-2.5-0.1-3.5c0.3-0.9,0.9-1.7,1.8-2.4c0.9-0.7,2.2-1.3,3.8-2l-1-2.7l-18.9,7.5
		l1.1,2.7c1.5-0.5,2.8-0.9,3.8-1c1-0.1,1.9,0.1,2.7,0.6c0.8,0.5,1.5,1.5,2.2,2.8c0.7,1.3,1.5,3.1,2.4,5.4l10.9,27.6l-0.3,0.1
		l-46.8-28.8l-13.9,5.5l1.1,2.7c1.5-0.5,2.8-0.8,3.9-0.8c1-0.1,2,0.2,2.8,0.7c0.8,0.5,1.5,1.4,2.2,2.7c0.7,1.2,1.4,2.8,2.2,4.8
		l11.3,28.5c0.9,2.2,1.5,4,1.8,5.3s0.3,2.5,0.1,3.4c-0.3,0.9-0.9,1.7-1.8,2.4c-0.9,0.7-2.2,1.3-3.8,2l1,2.7l18.9-7.5l-1.1-2.7
		c-1.5,0.5-2.8,0.9-3.8,1c-1,0.1-1.9-0.1-2.7-0.6c-0.8-0.6-1.5-1.5-2.2-2.8c-0.7-1.3-1.5-3.1-2.4-5.4l-11.9-30l0.3-0.1l50.7,30.7
		l4.2-1.7l-16.6-41.9C743.6,1656.9,743,1655.1,742.7,1653.7z"/>
	<path class="st0" d="M820.6,1626c-2.6-3.4-5.6-6.1-9.1-8.1c-3.5-2-7.2-3.2-11.1-3.7c-3.9-0.5-7.8-0.2-11.8,0.8
		c-4,1.1-7.8,2.9-11.3,5.6c-3.5,2.7-6.4,5.8-8.5,9.3c-2.1,3.5-3.5,7.2-4.1,11.1c-0.6,3.9-0.5,7.7,0.4,11.7c0.9,3.9,2.7,7.6,5.2,11
		c2.5,3.3,5.4,5.8,8.9,7.7c3.4,1.9,7.1,3,10.9,3.4c3.8,0.4,7.7,0.1,11.7-1c4-1.1,7.7-2.9,11.2-5.6c3.5-2.6,6.3-5.7,8.5-9.2
		c2.1-3.5,3.5-7.2,4.2-11c0.7-3.8,0.6-7.6-0.2-11.5C824.7,1632.8,823,1629.3,820.6,1626z M819.1,1650.2c-0.2,2.9-1,5.6-2.4,8.1
		c-1.4,2.5-3.4,4.8-6.1,6.8c-2.7,2-5.4,3.3-8.2,4c-2.8,0.7-5.6,0.7-8.4,0.1c-2.8-0.6-5.5-1.9-8.2-3.7c-2.7-1.9-5.1-4.3-7.4-7.4
		c-2.4-3.2-4.2-6.4-5.3-9.6c-1.1-3.2-1.7-6.3-1.5-9.2c0.1-2.9,0.9-5.7,2.3-8.3c1.4-2.6,3.4-4.9,6.1-6.9c2.7-2,5.4-3.3,8.3-3.9
		c2.9-0.6,5.7-0.6,8.6,0.1c2.9,0.7,5.7,2.1,8.4,4.1c2.8,2,5.3,4.6,7.8,7.8c2.3,3.1,4,6.1,5,9.2
		C818.9,1644.4,819.4,1647.3,819.1,1650.2z"/>
	<path class="st0" d="M847.2,1560.1c-1-1-1.6-2-1.8-2.9c-0.2-0.9-0.1-1.9,0.3-3c0.4-1,1.2-2.2,2.2-3.7l-2.3-1.8l-12.5,16l2.3,1.8
		c1-1.2,1.9-2.2,2.7-2.8c0.8-0.6,1.7-0.9,2.7-0.8c1,0.1,2.1,0.5,3.4,1.3c1.3,0.8,2.9,1.9,4.8,3.4l23.4,18.3l-0.2,0.2l-55-1
		l-9.2,11.8l2.3,1.8c1.1-1.2,2-2.1,2.9-2.7c0.9-0.6,1.8-0.8,2.7-0.8c1,0.1,2,0.5,3.2,1.2c1.2,0.7,2.6,1.7,4.3,3l24.2,18.8
		c1.9,1.4,3.3,2.7,4.2,3.7c1,1,1.6,2,1.8,2.9c0.2,0.9,0.1,1.9-0.3,2.9c-0.4,1-1.2,2.2-2.2,3.7l2.3,1.8l12.5-16l-2.3-1.8
		c-1,1.2-1.9,2.2-2.7,2.8c-0.8,0.6-1.7,0.9-2.6,0.8c-1-0.1-2.1-0.5-3.3-1.3c-1.3-0.8-2.9-1.9-4.9-3.5l-25.4-19.8l0.2-0.2l59.3,0.7
		l2.8-3.6l-35.6-27.7C849.6,1562.3,848.2,1561.1,847.2,1560.1z"/>
</g>
<g>
	<g>
		<path class="st0" d="M171.7,1456c-0.4-2.1-27.3-24.4-27.3-24.4l-24.8-25.7l-9.1-19.4l16.6-1.7l27.7,23.6l22.8,7.4l-19.4-15.7
			l-22.3-26.5l-7.4-17l24.8,2.5l24.4,24l23.2,11.2l-10.3-12.4l-19-22.8l0.8-17l16.6-2.1l16.6,12l17.8,13.7l2.1-7l-13.7-18.6
			l-9.5-24.8l2.9-12l14.5-3.7L233,1312l14.1,13.2l17.8,14.1l14.5-28.1l14.1-2.9l13.2,25.2l8.7,6.6l11.6-9.1l-7.9-15.3l-4.1-13.7
			l5.8-7.9l11.2-3.7l14.1,11.2l11.2,10.8l11.2,7.7l12.4,8.9l43.9,32.7l8.9-13.2l-5.9-9.4l9.5-10l11.5,4l12.4,9.1l9.5,7.9l9.1,8.7
			l7.9,6.6l-7-17.8l-12-17.8l0.4-12.4l18.6,7l17.8,18.2l23.6,19.9v-13.2l-9.1-9.5l-6.2-13.7v-8.7l4.6-5.8l13.7,8.5l17.4,15.5
			l10.3,11.2l9.5,5.4v-20.7l-14.5-17.8L545,1295l-5.4-18.6l-0.4-15.7l15.3-16.1l19.4,24.4l33.9,35.2l26.1,8.7l22.3,12.8l-18.3-39
			v-8.6l18.3,10.3l17,29.8l6.2,14.1l7.4-3.7l-3.7-12.8l3.7-3.3l5.8,2.9l9.9,9.9l11.6,7.9l76.1,17.2l-541.9,98.1L171.7,1456z"/>
	</g>
	<g>
		<path class="st1" d="M101.8,1470.9l14.6,20.2l13.6,24l118.8-5.3l132.8-9.5L509,1493l124.3-22.1L739,1455l140.1-29.3
			c0,0,135-23.3,136.4-22.3c1.4,0.9,61-31.2,61-31.2l61.9-16.8l35.8-24.2V1320l-36.8,3.3l-77.3-1.4l-89.8,3.7l-87.5,1.9l-120.6,17.2
			L644,1355.4l-84.3,16.8l-102.4,12.6l-98.2,18.2l-101.5,14.7l-77.3,28.1L101.8,1470.9z"/>
	</g>
	<g>
		<path class="st2" d="M693.2,1012.2l6.7,6.9l15.1,18.5l20.6,20.4l20.9,29.4l27.6,30.5l20.3,34.5l15.6,22.9l5.8,21.1l-6,25.6
			l-13.8,30.4l-17.8,55.9l-6.3,23.8l-14.7,39.4l23.2,9l16.2,9.6l9,4.8l6.3-10.2l11.1-0.3l6.9,5.7l9.9,4.8l1.8,9.9l-8.1,9.3h-25.3
			h-28.9l-23.8-5.1l-25,2.1l-19,7.8l-23.8,3.3l-18.4-3.3l-5.7-10.5l6-15.6l8.7-12.9l2.7-13.8l0.6-10.2l1.8-11.4l9-31.9l10.5-34
			l7.8-37.9l13.8-20.5l8.4,5.7l11.4,10.8l8,9l7.7-6.3c0,0-5.4-8.7-6.3-9.9c-0.9-1.2-14.7-16.5-14.7-16.5l-29.6-22l-26.3-15.6
			l-17.5-19.9l-23.8-19.9l-24.7-28.6l-9.4-19.7l-17.5-40.8l25.5-25.6l36.4-14.4L693.2,1012.2z"/>
	</g>
	<g>
		<polygon class="st2" points="515.1,989.6 493.6,1020 471.9,1072.5 448.6,1135.8 431.4,1182.7 419.8,1235.9 388.3,1266.6 
			342.2,1322.1 310,1358.5 289.3,1391.5 269.8,1410.6 262.3,1424.1 269.1,1440.2 300.6,1454.4 332.4,1468.7 349.3,1470.9 
			368.8,1468.7 404.2,1461.6 407.9,1450.3 393.6,1442.8 366.2,1444.3 344.1,1433.8 338.1,1425.2 361.7,1407.6 396.1,1375.3 
			432,1333.9 463.5,1303.6 484.5,1278.8 506,1245.9 518.2,1202.3 541.9,1160.8 560.7,1117.8 569,1084.9 566.3,1012.9 		"/>
	</g>
	<g>
		<polygon class="st2" points="660.5,814.7 664.3,783.7 697.3,755.1 731.2,733.8 769.6,740.1 782.2,765.1 778.9,812.9 769.6,819.5 
			721.3,833.8 		"/>
	</g>
	<g>
		<polygon class="st2" points="771,733.8 812.9,772.9 834.4,790.9 846.3,806.1 872.6,827.8 913.1,861.4 919.4,867.4 952.8,867.4 
			989.6,871.4 1024.5,871.4 1046.2,871.4 1063,861.2 1071.9,841.5 1082.2,826.2 1093.4,830.2 1085.6,847.2 1088.4,889.7 
			1092.1,917.4 1083,925.1 1064.2,925.1 1037.9,928.8 989.1,932.8 933.1,939.1 907.1,942.2 892,943.7 876.3,939.7 848.1,910.3 
			832.9,891.4 801,849.7 769.6,819.5 		"/>
	</g>
	<g>
		<path class="st2" d="M711.6,745.3l-41.7,4.9l-23.1,5.1l-30,23.4L580,811.8l-42.2,26.9l-19.7,19l-8.9,8.9l-3.4-2.4l5.8-7.5l7.3-7.1
			l-36.8-0.2l-46.7,0.5l-28.5-2.2l-27.4,0.4l-36.8-10.5l-27.2,0.7l-22.4,1.5l-12.1,3.9l-6.1,4.8v6.8l7.5,3.1l18.8-0.4l3.5,3.1
			l-17.8,8.3l-13.8,12.3l-11.2,11.6l-2,9.2l3.9,4.2l14.2-12.9l10.5-10.1l10.3-7.2l8.5-6.1l-0.9,3.3l-4.2,3.5l-15.3,12.5L267.2,908
			l-2.4,9l6.4,5.7c0,0,6.8-7.7,6.8-8.3c0-0.7,10.5-12.9,10.5-12.9l12.1-8.8l8.3-6.6l8.1-5.7l2.8,1.3l-0.9,2.8l-13.8,11l-12.3,7.2
			l-10.3,12.1l-7,13.8l5,5.7l8.1-1.1l6.6-14.2l10.7-10.7l10.3-9l6.8-6.1l3.7-3.5l4.2-1.1l-3.1,3.3l-15.8,15.8l-12.1,13.8l-1.1,5.1
			l4.2,2.4l4.6-0.9l8.5-9.9l8.5-7.5l11-10.7l10.1-2.6l16.2,4.2l19.7,5l12.1-0.7l35.3,3.5l20.8,2l28.1,3.9l21.3,3.3l11,0.7l11.6-4.2
			l23.4-18.8l17.3-15.8l23.9-14.7l23.7-11.2l33-14.8c0,0,16.1-23.2,17.3-25c1.2-1.8,25.2-28.3,25.2-28.3L711.6,745.3z"/>
	</g>
	<g>
		<polygon class="st2" points="747.3,875.3 728.5,902.4 724,919.1 711.6,947.8 704.2,972.6 701.5,989.9 700,1000.1 700,1019.1 
			667.4,1028.4 650.3,1034.6 634.1,1042.7 621.7,1060.9 618.2,1072.9 618.2,1087.4 584.5,1087.4 569,1085 562.4,1064.4 
			556.2,1046.6 547.6,1031.1 535.2,1015.2 521.7,998.5 515.1,989.6 525.6,966.7 531.6,959 543.8,943.7 570.5,921.4 585.6,894.3 
			596.7,869.5 609.7,839.8 702.3,855.1 		"/>
	</g>
	<g>
		<path class="st3" d="M619.2,789l11.5-3.2c0,0,12.5,0.8,13.3,0s13.1,4.8,13.1,4.8l19.2,9.1l24,5.3l24.6,1.9L750,805l21.9,6.9
			l7,16.5l-1.4,26.5l-9.3,18.4l-23.2,6.7l-23.2,6.4l-21.4-2.4l-14.4-8l-18.7-7.5l-16.8-3.5l-34.2-4.5l-17.4-12.8l-2.1-11.7l1.9-17.2
			l15-23.8L619.2,789z"/>
	</g>
	<g>
		<polygon class="st3" points="777.3,738.4 774.6,761.9 770,775.3 758.7,792 751.2,807.8 757.9,810.1 774.7,785.5 780.6,773 
			784.4,760.7 781.5,741.9 		"/>
	</g>
	<g>
		<path class="st3" d="M643.4,790c0.5-0.4,12.2-7.9,12.2-7.9l10.6-8.8l23-12l17.4-13.5l5-7.7l-40.4,21.7l-12,8.3l-12.9,8.6l-6.8,9.3
			L643.4,790z"/>
	</g>
	<g>
		<polygon class="st4" points="608.1,947.7 612.9,947.6 616.2,952.6 613.7,963.6 605.1,966.6 600.7,958.9 604.2,949 		"/>
	</g>
	<g>
		<polygon class="st3" points="701.5,989.9 700,1000.1 700,1019.1 667.4,1028.4 650.3,1034.6 634.1,1042.7 621.7,1060.9 
			618.2,1072.9 618.2,1087.4 584.5,1087.4 569,1085 562.4,1064.4 556.2,1046.6 547.6,1031.1 535.2,1015.2 521.7,998.5 515.1,989.6 
			525.6,966.7 531.6,959 545.7,966.6 558.4,978 583.6,984.4 611.1,985.8 645.5,989.9 		"/>
	</g>
	<g>
		<polygon class="st4" points="440.4,1246.2 447.9,1248.5 444.2,1258.1 447.9,1270.5 460.1,1267.6 471.9,1253.8 474.6,1260.4 
			462.4,1281.4 443.7,1286.6 433.5,1278.4 433.5,1258.7 		"/>
	</g>
	<g>
		<polygon class="st4" points="205.1,1517.9 178.5,1492.5 162.6,1475.4 140.4,1445.6 157.7,1442.8 184.2,1470.9 205.1,1493.2 
			225.4,1507.8 231.8,1496.4 214.7,1475.4 221,1467.8 236.8,1475.4 252.1,1483.7 270.5,1498.3 270.5,1480.4 259,1466.5 
			262.3,1459.3 270.5,1463.1 281.4,1475.2 291.8,1487.2 308.3,1501.2 323.1,1511.1 		"/>
	</g>
	<g>
		<path class="st4" d="M440.8,1503.5l-12.4-23.1l-6.4-12.6l2.7-5.5l8.7,4.1l9.2,8.7l9.2,7.8l2.2-6v-9.6l-12.7-11.3l-7.8-13.2
			l-5.9-10.8l-3.7-7.3l-1.8-7.7l6.4-4.6l8,2l8.5,8.1l9.1,11.9l9.3,8.5l17.7,17.9c0,0,13.6,13.9,14.4,12.7c0.8-1.1,3.7-7.6,3.7-7.6
			l-12.7-23l-4-18.9l7.4-3.7l14.1,19.2l12.2,12.2l15.3,11l15,8.3v-10l-4.8-15.6l-0.8-11l10.5,8.4l6.8,8.5l5.9,6.6
			c0,0,9.9,10.7,9.9,9.6c0-1.1,2-6.8,2-6.8l-10.7-15l-10.5-12.7l-8.8-10.6l-5.9-8.4l-6.8-9.6l-4.5-9.3l-1.4-8.2l6.5-7.9l6.8,1.4
			l12.6,12.9l14,14.3l13.6,10.1l17,12.5l11.3,11.1l13.9,12.1l10.2-1.7l-16.4-27.7l-4.5-18.1l-5.4-17.5l7.9,0.3l6.5,8.2l6.8,12.7
			l5.1,8.1l7.1,10.8l18.7,12.8h4.8l-3.7-10.8l-5.4-10.7l-0.3-9.6l9.3,2.5l9.9,15.3l6.2,8.8l7.1,8.2l11.3,0.6l-3.1-9.6l1.7-4.8
			l5.1-3.4l9.1,3.1l11.6,8.5l11.9,7.1c0,0,0.6,1.4,9.9,6.2s2,0.6,9.3,4.8c7.4,4.2,7.4,4.2,7.4,4.2S540.9,1517.2,440.8,1503.5z"/>
	</g>
	<g>
		<polygon class="st4" points="1142.5,940.9 1135.9,949.9 1096.6,949.9 1088.9,940.9 1084.8,911.5 1078.6,830.7 1083.2,821.3 
			1099.1,819.5 1114.1,818.1 1128.5,818.1 1134.7,829.1 1136.5,846.8 1138.1,860 1141.1,902.2 		"/>
	</g>
	<g>
		<polygon class="st0" points="1082.2,814.9 1083.2,821.3 1128.5,818.1 1128.5,809.5 		"/>
	</g>
	<g>
		<path class="st2" d="M1102,847.1l-4.6,10.9c0,0,4.1,5.9,4.6,5.6c0.5-0.3,12.3,2.9,12.3,2.9l12.4-1.9l14.9,0.3l4.5-3.2l-2.5-8.3
			l-3.5-6.3l-7.6-1.4L1102,847.1z"/>
	</g>
	<g>
		<polygon class="st2" points="1101.1,866.4 1099.2,874.7 1101.1,881 1114.6,883.1 1128.2,881 1144.6,881.7 1147.9,872.7 
			1142.4,867.9 1126.6,868.7 1110.2,867.7 		"/>
	</g>
	<g>
		<polygon class="st2" points="1099.7,885.3 1099.7,891.6 1102.5,896.4 1111.1,897.6 1124.3,896.4 1137.2,896.4 1147.4,893 
			1147.4,887.2 1140,884.5 1130.3,884.5 1117.9,886.3 		"/>
	</g>
	<g>
		<polygon class="st2" points="1103.2,899 1101,905.8 1106.2,911.2 1121.9,911.2 1134.7,911.2 1146.1,910 1146.1,903.4 1141.1,899 
			1120.7,899.8 		"/>
	</g>
	<g>
		<path class="st2" d="M1016.7,572.7v22.5l-38.9,18l-40.7,12.2l-28.9,9.1l-28.6-0.8l-33.1-9.9l-5.1,21.3l18.5,6.4h27.4l19.4-2.9
			l8.1-1.2l4.5,6.8l-2,5.4l3.3,5.5l-5.8,8.8l-7.9-2.6l-2.6,0.4l-32.6,4.6l-35.1,12.5l-31.6,20.4l-24.7,26.3l-8.9,18.4
			c0,0-71,6.2-71,5.4c0-0.9,7.2-18.3,7.2-18.3l14.8-20l9.3-15.9l-20.3-106.4l30.7-33.9l41.7-8.4l29.1,9.6l62.4,3.5l58.8,10.1
			l55.6-6.8H1016.7z"/>
	</g>
	<g>
		<path class="st5" d="M812.9,565.8l-14.7-22.1l-30.7-3.7l-14.1,3.7l-48.7-3.7l-55.8-6.5l-42.7,4l-37.7,2.5l-20.1,4l-4.5,12.1
			l13.1,9.7l4.5,7.4h-26.6h-15.1h-11.6l-31.7,7l-6,12.1l-10,18.1l8.5,11.1l10,3.5l9,4.5l-11.1,9l-12.6,11.1l-4,12.6v12.6l4.5,10.6
			h25.6l23.9-3l5.3,6.4l-11.3,8.3l1.4,12l14.3,6.5h33.2h22.1l19.6,9.5l22.6-3.5l10.6-9.5l38.2-1h29.1l21.6,1.5l20.1-1l17.1-8
			c0,0,11.6-7,12.1-8.5s1.5-12.1,1.5-12.1l-2.5-15.1l-5,0.5l-0.5,9l-5,9l-11.1-10l-7-20.1l-5.5-26.9l7.5-10.3l11.6-4l8,10.6l9-2.5
			l-6-18.6l-3-17.1l1.5-13.1l21.6-7.5L812.9,565.8z"/>
	</g>
	<g>
		<polygon class="st0" points="817.6,533.3 825.8,528.4 843.1,541.6 858.5,563.3 865.2,589.2 858.1,595.2 834.1,582.8 822.5,566.7 
			817.6,552.8 		"/>
	</g>
	<g>
		<path class="st0" d="M747.3,619.8c0.9-1.4,28.7-23.9,29.4-24.6s28.4-20.5,28.4-20.5s27.6-20.6,27.9-21.1s6,12.2,6,12.2l-21.7,14.3
			l-33.1,25.1l-27.2,20L747.3,619.8z"/>
	</g>
	<g>
		<polygon class="st0" points="1142.5,940.9 1135.9,949.9 1096.6,949.9 1088.9,940.9 1108,940.9 1132.5,938.6 		"/>
	</g>
	<g>
		<polygon class="st6" points="920.6,664.9 914.8,673.7 906.9,671.1 900.1,669.1 885.2,663 894.8,657.6 901.2,652 906.7,648.5 
			914.8,647.3 919.3,654 917.3,659.4 		"/>
	</g>
	<g>
		<path class="st2" d="M850.5,613.2l10.6,13.6l7.1,10.8l18.9,8.8l10.3,6.5l-13.8,4.7c0,0-31.4,3.6-30.8,3.7s-21.1-11.6-21.1-11.6
			l0.9-21.7l14.6-12.3L850.5,613.2z"/>
	</g>
</g>
</svg>
